// Jest Snapshot v1, https://goo.gl/fbAQLP

exports[`Specification renders a Specification based on id should match its snapshot 1`] = `
<div
  className="ais-InstantSearch__root"
>
  <div
    className="Specification"
  >
    <div
      className="ais-MultiIndex__root"
    >
      <div />
    </div>
  </div>
</div>
`;
