// Jest Snapshot v1, https://goo.gl/fbAQLP

exports[`should match its snapshot 1`] = `
<div
  className="ais-InstantSearch__root"
>
  <div
    className="ComparedItem"
  >
    <div
      className="listComparedItemSection"
      style={
        Object {
          "display": "block",
        }
      }
      toggle="true"
    >
      <h3
        className="ComparedItemTitle"
      >
        List of item
      </h3>
      <div
        className="ais-MultiIndex__root"
      >
        <table>
          <thead>
            <tr>
              <td
                colSpan="2"
              >
                <h4>
                  Pick one below
                </h4>
              </td>
            </tr>
          </thead>
          <tbody />
        </table>
      </div>
    </div>
    <div
      className="comparedItemSection"
      style={
        Object {
          "display": "none",
        }
      }
      toggle="false"
    >
      <div
        className="ais-InstantSearch__root"
      >
        <div
          className="ComparedItem"
        >
          <h3
            className="ComparedItemTitle"
          >
            Second Item
             Detail
          </h3>
          <div
            className="ais-MultiIndex__root"
          >
            <div />
          </div>
        </div>
      </div>
      <button
        className="closeButton"
        onClick={[Function]}
      >
        Pick other items
      </button>
    </div>
  </div>
</div>
`;
